[
{"_id": {"$oid": "619d789aaa354fdf2b01681b"}, "username": "alovelace", "passwd": "qwe123qwe"},
{"_id": {"$oid": "619d817a808f59124f2048c6"}, "username": "cbabagge", "passwd": "123456"},
{"_id": {"$oid": "61a01844d68aba8edcb1d88e"}, "username": "imurdock", "passwd": "debian_bullseye!"}
]